Normalisation et vérification des données
…
- visdat

- scTenifoldNet

- factoextra

Enfin, chargez les données et mettez les dans un objet à l’aide du
code suivant (modifiez en fonction du chemin vers votre fichier):

RNAseq_data <- read_tsv("../../../data/Raw_featureCounts_WT_arp6.txt")

RNAseq_data

## # A tibble: 36,795 × 13
##    Geneid    arp6_0.5mM_rep1 arp6_0.5mM_rep2 arp6_0.5mM_rep3 WT_10mM_rep1
##    <chr>               <dbl>           <dbl>           <dbl>        <dbl>
##  1 AT1G01010            428             393             344          762 
##  2 AT1G01020            689             662             747          739 
##  3 AT1G01030            106             234             208          202 
##  4 AT1G01040           2048.           2256.           2358.        2448.
##  5 AT1G01050           2743            2936.           3645         3990 
##  6 AT1G01060            196             136             228           84 
##  7 AT1G01070            422             500             362          390 
##  8 AT1G01080           2204            2686            2178         4011 
##  9 AT1G01090           7250           10233           13556        10228 
## 10 AT1G01100          15991           20832           20542        22295 
## # ℹ 36,785 more rows
## # ℹ 8 more variables: WT_10mM_rep2 <dbl>, WT_10mM_rep3 <dbl>,
## #   arp6_10mM_rep1 <dbl>, arp6_10mM_rep2 <dbl>, arp6_10mM_rep3 <dbl>,
## #   WT_0.5mM_rep1 <dbl>, WT_0.5mM_rep2 <dbl>, WT_0.5mM_rep3 <dbl>
…
